{
  "project_info": {
    "project_number": "348511606712",
    "firebase_url": "https://online-food-order-50368.firebaseio.com",
    "project_id": "online-food-order-50368",
    "storage_bucket": "online-food-order-50368.appspot.com"
  },
  "client": [
    {
      "client_info": {
        "mobilesdk_app_id": "1:348511606712:android:725fd2b29c77efc3",
        "android_client_info": {
          "package_name": "com.ofo.ofo"
        }
      },
      "oauth_client": [
        {
          "client_id": "348511606712-411168v19p2q1pks4dviq10hutuhimju.apps.googleusercontent.com",
          "client_type": 1,
          "android_info": {
            "package_name": "com.ofo.ofo",
            "certificate_hash": "3D3E4D7AA53FC8FFED307F2CFA61F321FA0B2DED"
          }
        },
        {
          "client_id": "348511606712-396qpbi5kjmirpgktsk98tgmmh123eg3.apps.googleusercontent.com",
          "client_type": 3
        }
      ],
      "api_key": [
        {
          "current_key": "AIzaSyANePpP0D0GCt8rNA7ecvNwDXvZeUkQjUM"
        }
      ],
      "services": {
        "analytics_service": {
          "status": 1
        },
        "appinvite_service": {
          "status": 2,
          "other_platform_oauth_client": [
            {
              "client_id": "348511606712-396qpbi5kjmirpgktsk98tgmmh123eg3.apps.googleusercontent.com",
              "client_type": 3
            }
          ]
        },
        "ads_service": {
          "status": 2
        }
      }
    }
  ],
  "configuration_version": "1"
}